{
  "family": "ENVIRONMENT-COMPONENT_NAME",
  "executionRoleArn": "arn:aws:iam::AWS_ACCOUNT:role/ENVIRONMENT-COMPONENT_NAME-ecs-service-role",
  "taskRoleArn": "arn:aws:iam::AWS_ACCOUNT:role/ENVIRONMENT-COMPONENT_NAME-ecs-service-role",
  "containerDefinitions": [
    {
      "name": "COMPONENT_NAME",
      "cpu": 50,
      "memoryReservation": 128,
      "image": "580457876081.dkr.ecr.eu-west-1.amazonaws.com/COMPONENT_NAME:ECR_VERSION",
      "portMappings": [
        {
          "hostPort": 0,
          "protocol": "tcp",
          "containerPort": 8080
        }
      ],
      "logConfiguration": {
        "logDriver": "awslogs",
        "options": {
          "awslogs-group": "/ENVIRONMENT/ecs/service/COMPONENT_NAME",
          "awslogs-stream-prefix": "COMPONENT_NAME",
          "awslogs-region": "AWS_REGION"
        }
      },
      "environment" : [
        { "name" : "NODE_TLS_REJECT_UNAUTHORIZED", "value" : "0"},
        { "name" : "ENV", "value": "ENVIRONMENT" },
        { "name" : "REGION", "value": "AWS_REGION" },
        { "name" : "PLATFORM", "value": "PLATFORM_ID" },
	      { "name" : "REGION", "value": "AWS_REGION" }
      ],
      "secrets": [
        {
          "name": "FIREBASE_PROJECT_ID",
          "valueFrom": "arn:aws:ssm:AWS_REGION:AWS_ACCOUNT:parameter/ENVIRONMENT/firebase/project_id"
        },
        {
          "name": "API_URL_BASE",
          "valueFrom": "arn:aws:ssm:AWS_REGION:AWS_ACCOUNT:parameter/ENVIRONMENT/api/url_full_version"
        },
        {
          "name": "API_PUBLIC_URL",
          "valueFrom": "arn:aws:ssm:AWS_REGION:AWS_ACCOUNT:parameter/ENVIRONMENT/api-gw/public/url"
        },
        {
          "name": "MAIN_DOMAIN",
          "valueFrom": "arn:aws:ssm:AWS_REGION:AWS_ACCOUNT:parameter/PLATFORM_ID/ENVIRONMENT/main_domain/domain"
        },
        {
          "name": "LANGUAGE",
          "valueFrom": "arn:aws:ssm:AWS_REGION:AWS_ACCOUNT:parameter/PLATFORM_ID/ENVIRONMENT/language"
        },
        {
          "name": "COUNTRY_CODE",
          "valueFrom": "arn:aws:ssm:AWS_REGION:AWS_ACCOUNT:parameter/PLATFORM_ID/ENVIRONMENT/country_code"
        },
        {
          "name": "CURRENCY_CODE",
          "valueFrom": "arn:aws:ssm:AWS_REGION:AWS_ACCOUNT:parameter/PLATFORM_ID/ENVIRONMENT/currency_code"
        },
        {
          "name": "TIMEZONE",
          "valueFrom": "arn:aws:ssm:AWS_REGION:AWS_ACCOUNT:parameter/ENVIRONMENT/config/timezone"
        },
        {
          "name": "FIREBASE_PUBLIC_CONFIG",
          "valueFrom": "arn:aws:ssm:AWS_REGION:AWS_ACCOUNT:parameter/ENVIRONMENT/firebase/public_config"
        }

      ]
    }
  ]
}
